{
  "project_info": {
    "project_number": "401337095256",
    "firebase_url": "https://fir-crud-9af6f.firebaseio.com",
    "project_id": "fir-crud-9af6f",
    "storage_bucket": "fir-crud-9af6f.appspot.com"
  },
  "client": [
    {
      "client_info": {
        "mobilesdk_app_id": "1:401337095256:android:e6b8f0ac3972699804e62d",
        "android_client_info": {
          "package_name": "com.example.fluttertodoapp"
        }
      },
      "oauth_client": [
        {
          "client_id": "401337095256-oudc2gr9jur61ginnbelq8ctodpk2l8n.apps.googleusercontent.com",
          "client_type": 3
        }
      ],
      "api_key": [
        {
          "current_key": "AIzaSyDF15x6a4-681hppDGe2TRpsvIB-yxWpc4"
        }
      ],
      "services": {
        "appinvite_service": {
          "other_platform_oauth_client": [
            {
              "client_id": "401337095256-oudc2gr9jur61ginnbelq8ctodpk2l8n.apps.googleusercontent.com",
              "client_type": 3
            }
          ]
        }
      }
    },
    {
      "client_info": {
        "mobilesdk_app_id": "1:401337095256:android:b92d71ad92878e4b04e62d",
        "android_client_info": {
          "package_name": "com.example.google"
        }
      },
      "oauth_client": [
        {
          "client_id": "401337095256-oudc2gr9jur61ginnbelq8ctodpk2l8n.apps.googleusercontent.com",
          "client_type": 3
        }
      ],
      "api_key": [
        {
          "current_key": "AIzaSyDF15x6a4-681hppDGe2TRpsvIB-yxWpc4"
        }
      ],
      "services": {
        "appinvite_service": {
          "other_platform_oauth_client": [
            {
              "client_id": "401337095256-oudc2gr9jur61ginnbelq8ctodpk2l8n.apps.googleusercontent.com",
              "client_type": 3
            }
          ]
        }
      }
    }
  ],
  "configuration_version": "1"
}